<svg xmlns="http://www.w3.org/2000/svg" viewBox="0 0 32 32">
  <title>iconbank</title>
  <g id="solarus">
    <path
      d="M16,4A15.79,15.79,0,0,0,2.49,28H3.4l12-12c1.1,1.1,2.6-.38,3-.86l-.76-.76c-1-1-1.94.55-1.94.55l-2.28-2.28S17,11,19,13l1.46,1.45,2.66-2.65a2,2,0,1,1,1.18,1.17L21.6,15.59,23,17c1.95,1.94.31,5.51.31,5.51l-2.28-2.29s1.59-.9.55-1.94l-.75-.75c-.48.44-2,1.94-.87,3L12.61,28h16.9A15.79,15.79,0,0,0,16,4Z"
      style="fill:#ffab00" />
  </g>
</svg>
